{
    "id": "oniondigit51440.lastRunningDateTime",
    "version": 1,
    "status": "proposed",
    "name": "Last Running Date Time",
    "attributes": {
        "lastRunningDateTime": {
            "schema": {
                "type": "object",
                "properties": {
                    "value": {
                        "type": "string"
                    }
                },
                "additionalProperties": false,
                "required": [
                    "value"
                ]
            },
            "setter": "setLastRunningDateTime",
            "enumCommands": []
        }
    },
    "commands": {
        "setLastRunningDateTime": {
            "name": "setLastRunningDateTime",
            "arguments": [
                {
                    "name": "value",
                    "optional": false,
                    "schema": {
                        "type": "string"
                    }
                }
            ]
        }
    }
}